Analysis no special features
…
Step 2. Select only the columns of interest and filter trials that are not interesting for the calculations. Change data type of the responses to double and submission_id to factor. Detect outliers. 

data_selection <- select(data_raw, submission_id, snellen_result, is_expert, age, gender, trial_name, trial_number, fileID, response, RT, timeSpent, comments)
data_filtered <- filter(data_selection, trial_name != "test_snellen", trial_name != "b0_expert")
data_mut <- mutate(data_filtered, response = as.double(response), submission_id = factor(submission_id))
show(data_selection)

## # A tibble: 12,078 x 12
##    submission_id snellen_result is_expert   age gender trial_name
##            <dbl>          <dbl> <chr>     <dbl> <chr>  <chr>     
##  1           566              9 No           20 female test_snel~
##  2           566              9 No           20 female b0_expert 
##  3           566              9 No           20 female b1_exp    
##  4           566              9 No           20 female b1_exp    
##  5           566              9 No           20 female b1_exp    
##  6           566              9 No           20 female b1_exp    
##  7           566              9 No           20 female b1_exp    
##  8           566              9 No           20 female b1_exp    
##  9           566              9 No           20 female b1_exp    
## 10           566              9 No           20 female b1_exp    
## # ... with 12,068 more rows, and 6 more variables: trial_number <dbl>,
## #   fileID <dbl>, response <chr>, RT <dbl>, timeSpent <dbl>,
## #   comments <chr>

show(data_filtered)

## # A tibble: 11,880 x 12
##    submission_id snellen_result is_expert   age gender trial_name
##            <dbl>          <dbl> <chr>     <dbl> <chr>  <chr>     
##  1           566              9 No           20 female b1_exp    
##  2           566              9 No           20 female b1_exp    
##  3           566              9 No           20 female b1_exp    
##  4           566              9 No           20 female b1_exp    
##  5           566              9 No           20 female b1_exp    
##  6           566              9 No           20 female b1_exp    
##  7           566              9 No           20 female b1_exp    
##  8           566              9 No           20 female b1_exp    
##  9           566              9 No           20 female b1_exp    
## 10           566              9 No           20 female b1_exp    
## # ... with 11,870 more rows, and 6 more variables: trial_number <dbl>,
## #   fileID <dbl>, response <chr>, RT <dbl>, timeSpent <dbl>,
## #   comments <chr>

show(data_mut)

## # A tibble: 11,880 x 12
##    submission_id snellen_result is_expert   age gender trial_name
##    <fct>                  <dbl> <chr>     <dbl> <chr>  <chr>     
##  1 566                        9 No           20 female b1_exp    
##  2 566                        9 No           20 female b1_exp    
##  3 566                        9 No           20 female b1_exp    
##  4 566                        9 No           20 female b1_exp    
##  5 566                        9 No           20 female b1_exp    
##  6 566                        9 No           20 female b1_exp    
##  7 566                        9 No           20 female b1_exp    
##  8 566                        9 No           20 female b1_exp    
##  9 566                        9 No           20 female b1_exp    
## 10 566                        9 No           20 female b1_exp    
## # ... with 11,870 more rows, and 6 more variables: trial_number <dbl>,
## #   fileID <dbl>, response <dbl>, RT <dbl>, timeSpent <dbl>,
## #   comments <chr>

# 3 participants only rated "1" in both blocks, one participant only rated "7", one gave a invalid input for the Snellen test, we exclude them:
data_clean <- filter(data_mut, submission_id != 607, submission_id != 736, submission_id != 475, submission_id != 480, submission_id != 726)
show(data_clean)

## # A tibble: 11,280 x 12
##    submission_id snellen_result is_expert   age gender trial_name
##    <fct>                  <dbl> <chr>     <dbl> <chr>  <chr>     
##  1 566                        9 No           20 female b1_exp    
##  2 566                        9 No           20 female b1_exp    
##  3 566                        9 No           20 female b1_exp    
##  4 566                        9 No           20 female b1_exp    
##  5 566                        9 No           20 female b1_exp    
##  6 566                        9 No           20 female b1_exp    
##  7 566                        9 No           20 female b1_exp    
##  8 566                        9 No           20 female b1_exp    
##  9 566                        9 No           20 female b1_exp    
## 10 566                        9 No           20 female b1_exp    
## # ... with 11,270 more rows, and 6 more variables: trial_number <dbl>,
## #   fileID <dbl>, response <dbl>, RT <dbl>, timeSpent <dbl>,
## #   comments <chr>

Demografics

data_rawdemografics <- select(data_clean, submission_id, age, gender, is_expert, snellen_result, comments)
data_demografics <- dplyr::distinct(group_by(data_rawdemografics, submission_id))
show(data_demografics[order(data_demografics$submission_id),])

## # A tibble: 94 x 6
## # Groups:   submission_id [94]
##    submission_id   age gender is_expert snellen_result comments
##    <fct>         <dbl> <chr>  <chr>              <dbl> <chr>   
##  1 458              51 male   Yes                    9 <NA>    
##  2 459              20 female Yes                    9 <NA>    
##  3 460              18 female No                     9 <NA>    
##  4 461              63 male   No                    10 <NA>    
##  5 462              29 female No                     9 <NA>    
##  6 463              56 female No                     7 <NA>    
##  7 464              21 female No                    10 <NA>    
##  8 465              21 female No                     9 <NA>    
##  9 466              19 female No                     8 <NA>    
## 10 467              23 male   No                    10 <NA>    
## # ... with 84 more rows
…
sum(is.na(data_clean$age))/120

## [1] 1

From total participants there are total 14 participants, who are below age of 20, 70 are in range of 20 - 40 and 10 are in range of 41 to 63. 1 participants did not give data for age.

Step 3. Filter participants with special features as being an expert or having failed the vision test. Split data according to trial (b1: Liking, b2: Detactability). 

# Data without special groups
data_normal <- filter(data_clean, is_expert == "No", snellen_result > 6)
b1_normal <- filter(data_normal, trial_name == "b1_exp")
b2_normal <- filter(data_normal, trial_name == "b2_exp")
show(b1_normal)

## # A tibble: 4,980 x 12
##    submission_id snellen_result is_expert   age gender trial_name
##    <fct>                  <dbl> <chr>     <dbl> <chr>  <chr>     
##  1 566                        9 No           20 female b1_exp    
##  2 566                        9 No           20 female b1_exp    
##  3 566                        9 No           20 female b1_exp    
##  4 566                        9 No           20 female b1_exp    
##  5 566                        9 No           20 female b1_exp    
##  6 566                        9 No           20 female b1_exp    
##  7 566                        9 No           20 female b1_exp    
##  8 566                        9 No           20 female b1_exp    
##  9 566                        9 No           20 female b1_exp    
## 10 566                        9 No           20 female b1_exp    
## # ... with 4,970 more rows, and 6 more variables: trial_number <dbl>,
## #   fileID <dbl>, response <dbl>, RT <dbl>, timeSpent <dbl>,
## #   comments <chr>

show(b2_normal)

## # A tibble: 4,980 x 12
##    submission_id snellen_result is_expert   age gender trial_name
##    <fct>                  <dbl> <chr>     <dbl> <chr>  <chr>     
##  1 566                        9 No           20 female b2_exp    
##  2 566                        9 No           20 female b2_exp    
##  3 566                        9 No           20 female b2_exp    
##  4 566                        9 No           20 female b2_exp    
##  5 566                        9 No           20 female b2_exp    
##  6 566                        9 No           20 female b2_exp    
##  7 566                        9 No           20 female b2_exp    
##  8 566                        9 No           20 female b2_exp    
##  9 566                        9 No           20 female b2_exp    
## 10 566                        9 No           20 female b2_exp    
## # ... with 4,970 more rows, and 6 more variables: trial_number <dbl>,
## #   fileID <dbl>, response <dbl>, RT <dbl>, timeSpent <dbl>,
## #   comments <chr>

Step 4. Average data. Generate table with needed non-aggregated data in useful format.

Data of participants without special features (snellen failed, expert)

# Averaged data:
b1_normal_mean <- group_by(b1_normal, fileID) %>% summarise(mean_Like_normal = mean(response))
b2_normal_mean <- group_by(b2_normal, fileID) %>% summarise(mean_Detect_normal = mean(response))
show(b1_normal_mean)

## # A tibble: 60 x 2
##    fileID mean_Like_normal
##     <dbl>            <dbl>
##  1      1             3.54
##  2      2             4   
##  3      3             4.13
##  4      4             2.96
##  5      5             3.45
##  6      6             3.93
##  7      7             3.47
##  8      8             3.45
##  9      9             3.42
## 10     10             3.49
## # ... with 50 more rows

show(b2_normal_mean)

## # A tibble: 60 x 2
##    fileID mean_Detect_normal
##     <dbl>              <dbl>
##  1      1               3.27
##  2      2               3.95
##  3      3               3.08
##  4      4               2.99
##  5      5               3.14
##  6      6               3.96
##  7      7               3.86
##  8      8               3.10
##  9      9               3.36
## 10     10               3.65
## # ... with 50 more rows
…
# Non-average data:
b1_normal_mutated <- mutate(b1_normal, liking_normal = response, RT_liking = RT)
b2_normal_mutated <- mutate(b2_normal, detectability_normal = response, RT_detectability = RT)
b1_normal_selected <- select(b1_normal_mutated, fileID, submission_id, age, snellen_result, timeSpent, liking_normal, RT_liking)
b2_normal_selected <- select(b2_normal_mutated, fileID, submission_id, age, snellen_result, timeSpent, detectability_normal, RT_detectability)
b1_normal_orderd <- b1_normal_selected[order(b1_normal_selected$fileID),]
b2_normal_orderd <- b2_normal_selected[order(b2_normal_selected$fileID),]
merged_normal_data <- b1_normal_orderd
merged_normal_data$detectability_normal <- b2_normal_orderd$detectability_normal
merged_normal_data$RT_detectability <- b2_normal_orderd$RT_detectability
show(b1_normal_selected)

## # A tibble: 4,980 x 7
##    fileID submission_id   age snellen_result timeSpent liking_normal
##     <dbl> <fct>         <dbl>          <dbl>     <dbl>         <dbl>
##  1     26 566              20              9      11.9             6
##  2      3 566              20              9      11.9             5
##  3     11 566              20              9      11.9             3
##  4      4 566              20              9      11.9             3
##  5     22 566              20              9      11.9             1
##  6     33 566              20              9      11.9             5
##  7     17 566              20              9      11.9             4
##  8     60 566              20              9      11.9             4
##  9     23 566              20              9      11.9             6
## 10     59 566              20              9      11.9             4
## # ... with 4,970 more rows, and 1 more variable: RT_liking <dbl>

show(b2_normal_selected)

## # A tibble: 4,980 x 7
##    fileID submission_id   age snellen_result timeSpent detectability_n~
##     <dbl> <fct>         <dbl>          <dbl>     <dbl>            <dbl>
##  1     12 566              20              9      11.9                3
##  2      8 566              20              9      11.9                4
##  3      3 566              20              9      11.9                2
##  4     16 566              20              9      11.9                2
##  5     11 566              20              9      11.9                1
##  6     60 566              20              9      11.9                3
##  7     54 566              20              9      11.9                2
##  8      4 566              20              9      11.9                4
##  9      6 566              20              9      11.9                6
## 10     31 566              20              9      11.9                3
## # ... with 4,970 more rows, and 1 more variable: RT_detectability <dbl>

show(b1_normal_orderd)

## # A tibble: 4,980 x 7
##    fileID submission_id   age snellen_result timeSpent liking_normal
##     <dbl> <fct>         <dbl>          <dbl>     <dbl>         <dbl>
##  1      1 566              20              9     11.9              4
##  2      1 553              19              8     24.0              3
##  3      1 627              28              9      6.65             3
##  4      1 681              21              9     10.7              3
##  5      1 735              20              7     14.3              3
##  6      1 745              NA              9     22.9              5
##  7      1 757              17             11      8.26             4
##  8      1 550              24             10     11.3              3
##  9      1 552              27              7     17.7              3
## 10      1 555              19              9     11.5              6
## # ... with 4,970 more rows, and 1 more variable: RT_liking <dbl>

show(b2_normal_orderd)

## # A tibble: 4,980 x 7
##    fileID submission_id   age snellen_result timeSpent detectability_n~
##     <dbl> <fct>         <dbl>          <dbl>     <dbl>            <dbl>
##  1      1 566              20              9     11.9                 3
##  2      1 553              19              8     24.0                 5
##  3      1 627              28              9      6.65                3
##  4      1 681              21              9     10.7                 1
##  5      1 735              20              7     14.3                 3
##  6      1 745              NA              9     22.9                 4
##  7      1 757              17             11      8.26                1
##  8      1 550              24             10     11.3                 4
##  9      1 552              27              7     17.7                 2
## 10      1 555              19              9     11.5                 5
## # ... with 4,970 more rows, and 1 more variable: RT_detectability <dbl>

show(merged_normal_data)

## # A tibble: 4,980 x 9
##    fileID submission_id   age snellen_result timeSpent liking_normal
##     <dbl> <fct>         <dbl>          <dbl>     <dbl>         <dbl>
##  1      1 566              20              9     11.9              4
##  2      1 553              19              8     24.0              3
##  3      1 627              28              9      6.65             3
##  4      1 681              21              9     10.7              3
##  5      1 735              20              7     14.3              3
##  6      1 745              NA              9     22.9              5
##  7      1 757              17             11      8.26             4
##  8      1 550              24             10     11.3              3
##  9      1 552              27              7     17.7              3
## 10      1 555              19              9     11.5              6
## # ... with 4,970 more rows, and 3 more variables: RT_liking <dbl>,
## #   detectability_normal <dbl>, RT_detectability <dbl>

final_normal <- as_tibble(merged_normal_data)
show(final_normal)

## # A tibble: 4,980 x 9
##    fileID submission_id   age snellen_result timeSpent liking_normal
##     <dbl> <fct>         <dbl>          <dbl>     <dbl>         <dbl>
##  1      1 566              20              9     11.9              4
##  2      1 553              19              8     24.0              3
##  3      1 627              28              9      6.65             3
##  4      1 681              21              9     10.7              3
##  5      1 735              20              7     14.3              3
##  6      1 745              NA              9     22.9              5
##  7      1 757              17             11      8.26             4
##  8      1 550              24             10     11.3              3
##  9      1 552              27              7     17.7              3
## 10      1 555              19              9     11.5              6
## # ... with 4,970 more rows, and 3 more variables: RT_liking <dbl>,
## #   detectability_normal <dbl>, RT_detectability <dbl>
…
# Averaged data:
show(b1_normal_mean)

## # A tibble: 60 x 2
##    fileID mean_Like_normal
##     <dbl>            <dbl>
##  1      1             3.54
##  2      2             4   
##  3      3             4.13
##  4      4             2.96
##  5      5             3.45
##  6      6             3.93
##  7      7             3.47
##  8      8             3.45
##  9      9             3.42
## 10     10             3.49
## # ... with 50 more rows
…
Result: Positiv correltion, since estimate is 0.28.

Non-Averaged data: Cumulative family:

final_normal_mutated <- mutate(final_normal, liking_normal = as.integer(liking_normal), detectability_normal = as.integer(detectability_normal))
show(final_normal_mutated)

## # A tibble: 4,980 x 9
##    fileID submission_id   age snellen_result timeSpent liking_normal
##     <dbl> <fct>         <dbl>          <dbl>     <dbl>         <int>
##  1      1 566              20              9     11.9              4
##  2      1 553              19              8     24.0              3
##  3      1 627              28              9      6.65             3
##  4      1 681              21              9     10.7              3
##  5      1 735              20              7     14.3              3
##  6      1 745              NA              9     22.9              5
##  7      1 757              17             11      8.26             4
##  8      1 550              24             10     11.3              3
##  9      1 552              27              7     17.7              3
## 10      1 555              19              9     11.5              6
## # ... with 4,970 more rows, and 3 more variables: RT_liking <dbl>,
## #   detectability_normal <int>, RT_detectability <dbl>
…
