Analysis only snellen
…
Step 2. Select only the columns of interest and filter trials that are not interesting for the calculations. Change data type of the responses to double and submission_id to factor. Delet invalid participants. 

data_selection <- select(data_raw, submission_id, snellen_result, is_expert, age, gender, trial_name, trial_number, fileID, response, RT, timeSpent, comments)
data_filtered <- filter(data_selection, trial_name != "test_snellen", trial_name != "b0_expert")
data_mut <- mutate(data_filtered, response = as.double(response), submission_id = factor(submission_id))
show(data_selection)

## # A tibble: 12,078 x 12
##    submission_id snellen_result is_expert   age gender trial_name
##            <dbl>          <dbl> <chr>     <dbl> <chr>  <chr>     
##  1           566              9 No           20 female test_snel~
##  2           566              9 No           20 female b0_expert 
##  3           566              9 No           20 female b1_exp    
##  4           566              9 No           20 female b1_exp    
##  5           566              9 No           20 female b1_exp    
##  6           566              9 No           20 female b1_exp    
##  7           566              9 No           20 female b1_exp    
##  8           566              9 No           20 female b1_exp    
##  9           566              9 No           20 female b1_exp    
## 10           566              9 No           20 female b1_exp    
## # ... with 12,068 more rows, and 6 more variables: trial_number <dbl>,
## #   fileID <dbl>, response <chr>, RT <dbl>, timeSpent <dbl>,
## #   comments <chr>

show(data_filtered)

## # A tibble: 11,880 x 12
##    submission_id snellen_result is_expert   age gender trial_name
##            <dbl>          <dbl> <chr>     <dbl> <chr>  <chr>     
##  1           566              9 No           20 female b1_exp    
##  2           566              9 No           20 female b1_exp    
##  3           566              9 No           20 female b1_exp    
##  4           566              9 No           20 female b1_exp    
##  5           566              9 No           20 female b1_exp    
##  6           566              9 No           20 female b1_exp    
##  7           566              9 No           20 female b1_exp    
##  8           566              9 No           20 female b1_exp    
##  9           566              9 No           20 female b1_exp    
## 10           566              9 No           20 female b1_exp    
## # ... with 11,870 more rows, and 6 more variables: trial_number <dbl>,
## #   fileID <dbl>, response <chr>, RT <dbl>, timeSpent <dbl>,
## #   comments <chr>

show(data_mut)

## # A tibble: 11,880 x 12
##    submission_id snellen_result is_expert   age gender trial_name
##    <fct>                  <dbl> <chr>     <dbl> <chr>  <chr>     
##  1 566                        9 No           20 female b1_exp    
##  2 566                        9 No           20 female b1_exp    
##  3 566                        9 No           20 female b1_exp    
##  4 566                        9 No           20 female b1_exp    
##  5 566                        9 No           20 female b1_exp    
##  6 566                        9 No           20 female b1_exp    
##  7 566                        9 No           20 female b1_exp    
##  8 566                        9 No           20 female b1_exp    
##  9 566                        9 No           20 female b1_exp    
## 10 566                        9 No           20 female b1_exp    
## # ... with 11,870 more rows, and 6 more variables: trial_number <dbl>,
## #   fileID <dbl>, response <dbl>, RT <dbl>, timeSpent <dbl>,
## #   comments <chr>

# 3 participants only rated "1" in both blocks, one participant only rated "7", one gave a invalid input for the Snellen test, we exclude them:
data_clean <- filter(data_mut, submission_id != 607, submission_id != 736, submission_id != 475, submission_id != 480, submission_id != 726)
show(data_clean)

## # A tibble: 11,280 x 12
##    submission_id snellen_result is_expert   age gender trial_name
##    <fct>                  <dbl> <chr>     <dbl> <chr>  <chr>     
##  1 566                        9 No           20 female b1_exp    
##  2 566                        9 No           20 female b1_exp    
##  3 566                        9 No           20 female b1_exp    
##  4 566                        9 No           20 female b1_exp    
##  5 566                        9 No           20 female b1_exp    
##  6 566                        9 No           20 female b1_exp    
##  7 566                        9 No           20 female b1_exp    
##  8 566                        9 No           20 female b1_exp    
##  9 566                        9 No           20 female b1_exp    
## 10 566                        9 No           20 female b1_exp    
## # ... with 11,270 more rows, and 6 more variables: trial_number <dbl>,
## #   fileID <dbl>, response <dbl>, RT <dbl>, timeSpent <dbl>,
## #   comments <chr>

Step 3. Choose only participants who failed the vision test. Split data according to trial (b1: Liking, b2: Detactability). 

# Data for experts
data_sf <- filter(data_clean, snellen_result < 7)
b1_sf <- filter(data_sf, trial_name == "b1_exp")
b2_sf <- filter(data_sf, trial_name == "b2_exp")
show(b1_sf)

## # A tibble: 180 x 12
##    submission_id snellen_result is_expert   age gender trial_name
##    <fct>                  <dbl> <chr>     <dbl> <chr>  <chr>     
##  1 616                        5 No           33 male   b1_exp    
##  2 616                        5 No           33 male   b1_exp    
##  3 616                        5 No           33 male   b1_exp    
##  4 616                        5 No           33 male   b1_exp    
##  5 616                        5 No           33 male   b1_exp    
##  6 616                        5 No           33 male   b1_exp    
##  7 616                        5 No           33 male   b1_exp    
##  8 616                        5 No           33 male   b1_exp    
##  9 616                        5 No           33 male   b1_exp    
## 10 616                        5 No           33 male   b1_exp    
## # ... with 170 more rows, and 6 more variables: trial_number <dbl>,
## #   fileID <dbl>, response <dbl>, RT <dbl>, timeSpent <dbl>,
## #   comments <chr>

show(b2_sf)

## # A tibble: 180 x 12
##    submission_id snellen_result is_expert   age gender trial_name
##    <fct>                  <dbl> <chr>     <dbl> <chr>  <chr>     
##  1 616                        5 No           33 male   b2_exp    
##  2 616                        5 No           33 male   b2_exp    
##  3 616                        5 No           33 male   b2_exp    
##  4 616                        5 No           33 male   b2_exp    
##  5 616                        5 No           33 male   b2_exp    
##  6 616                        5 No           33 male   b2_exp    
##  7 616                        5 No           33 male   b2_exp    
##  8 616                        5 No           33 male   b2_exp    
##  9 616                        5 No           33 male   b2_exp    
## 10 616                        5 No           33 male   b2_exp    
## # ... with 170 more rows, and 6 more variables: trial_number <dbl>,
## #   fileID <dbl>, response <dbl>, RT <dbl>, timeSpent <dbl>,
## #   comments <chr>

Step 4. Average data. Generate table with needed non-aggregated data in useful format. 

# Averaged data:
b1_sf_mean <- group_by(b1_sf, fileID) %>% summarise(mean_Like_sf = mean(response))
b2_sf_mean <- group_by(b2_sf, fileID) %>% summarise(mean_Detect_sf = mean(response))
show(b1_sf_mean)

## # A tibble: 60 x 2
##    fileID mean_Like_sf
##     <dbl>        <dbl>
##  1      1         3.33
##  2      2         2.67
##  3      3         2.33
##  4      4         2.67
##  5      5         2.33
##  6      6         3   
##  7      7         3.33
##  8      8         2.67
##  9      9         2.33
## 10     10         2.33
## # ... with 50 more rows

show(b2_sf_mean)

## # A tibble: 60 x 2
##    fileID mean_Detect_sf
##     <dbl>          <dbl>
##  1      1           4.33
##  2      2           4.33
##  3      3           3.67
##  4      4           3.33
##  5      5           3.67
##  6      6           4   
##  7      7           5   
##  8      8           2.67
##  9      9           4.67
## 10     10           2.67
## # ... with 50 more rows
…
# Non-average data:
b1_sf_mutated <- mutate(b1_sf, liking_sf = response, RT_liking = RT)
b2_sf_mutated <- mutate(b2_sf, detectability_sf = response, RT_detectability = RT)
b1_sf_selected <- select(b1_sf_mutated, fileID, submission_id, age, snellen_result, timeSpent, liking_sf, RT_liking)
b2_sf_selected <- select(b2_sf_mutated, fileID, submission_id, age, snellen_result, timeSpent, detectability_sf, RT_detectability)
b1_sf_orderd <- b1_sf_selected[order(b1_sf_selected$fileID),]
b2_sf_orderd <- b2_sf_selected[order(b2_sf_selected$fileID),]
merged_sf_data <- b1_sf_orderd
merged_sf_data$detectability_sf <- b2_sf_orderd$detectability_sf
merged_sf_data$RT_detectability <- b2_sf_orderd$RT_detectability
show(b1_sf_selected)

## # A tibble: 180 x 7
##    fileID submission_id   age snellen_result timeSpent liking_sf RT_liking
##     <dbl> <fct>         <dbl>          <dbl>     <dbl>     <dbl>     <dbl>
##  1      7 616              33              5      12.5         3      5616
##  2     21 616              33              5      12.5         3      3518
##  3     22 616              33              5      12.5         3      2258
##  4     30 616              33              5      12.5         3      1917
##  5     42 616              33              5      12.5         3      5288
##  6     45 616              33              5      12.5         3      3627
##  7     48 616              33              5      12.5         2      2051
##  8     34 616              33              5      12.5         2      2907
##  9      1 616              33              5      12.5         2      3477
## 10     55 616              33              5      12.5         2      2395
## # ... with 170 more rows

show(b2_sf_selected)

## # A tibble: 180 x 7
##    fileID submission_id   age snellen_result timeSpent detectability_sf
##     <dbl> <fct>         <dbl>          <dbl>     <dbl>            <dbl>
##  1      1 616              33              5      12.5                5
##  2     15 616              33              5      12.5                5
##  3     56 616              33              5      12.5                3
##  4     37 616              33              5      12.5                6
##  5     36 616              33              5      12.5                6
##  6     18 616              33              5      12.5                5
##  7     25 616              33              5      12.5                5
##  8     26 616              33              5      12.5                6
##  9     60 616              33              5      12.5                2
## 10     31 616              33              5      12.5                2
## # ... with 170 more rows, and 1 more variable: RT_detectability <dbl>

show(b1_sf_orderd)

## # A tibble: 180 x 7
##    fileID submission_id   age snellen_result timeSpent liking_sf RT_liking
##     <dbl> <fct>         <dbl>          <dbl>     <dbl>     <dbl>     <dbl>
##  1      1 616              33              5     12.5          2      3477
##  2      1 582              21              6      5.98         4      1848
##  3      1 479              26              4      7.92         4      3064
##  4      2 616              33              5     12.5          2      5169
##  5      2 582              21              6      5.98         1      1981
##  6      2 479              26              4      7.92         5      2624
##  7      3 616              33              5     12.5          2      2087
##  8      3 582              21              6      5.98         3      2183
##  9      3 479              26              4      7.92         2      2312
## 10      4 616              33              5     12.5          2       976
## # ... with 170 more rows

show(b2_sf_orderd)

## # A tibble: 180 x 7
##    fileID submission_id   age snellen_result timeSpent detectability_sf
##     <dbl> <fct>         <dbl>          <dbl>     <dbl>            <dbl>
##  1      1 616              33              5     12.5                 5
##  2      1 582              21              6      5.98                5
##  3      1 479              26              4      7.92                3
##  4      2 616              33              5     12.5                 4
##  5      2 582              21              6      5.98                6
##  6      2 479              26              4      7.92                3
##  7      3 616              33              5     12.5                 1
##  8      3 582              21              6      5.98                7
##  9      3 479              26              4      7.92                3
## 10      4 616              33              5     12.5                 2
## # ... with 170 more rows, and 1 more variable: RT_detectability <dbl>

show(merged_sf_data)

## # A tibble: 180 x 9
##    fileID submission_id   age snellen_result timeSpent liking_sf RT_liking
##     <dbl> <fct>         <dbl>          <dbl>     <dbl>     <dbl>     <dbl>
##  1      1 616              33              5     12.5          2      3477
##  2      1 582              21              6      5.98         4      1848
##  3      1 479              26              4      7.92         4      3064
##  4      2 616              33              5     12.5          2      5169
##  5      2 582              21              6      5.98         1      1981
##  6      2 479              26              4      7.92         5      2624
##  7      3 616              33              5     12.5          2      2087
##  8      3 582              21              6      5.98         3      2183
##  9      3 479              26              4      7.92         2      2312
## 10      4 616              33              5     12.5          2       976
## # ... with 170 more rows, and 2 more variables: detectability_sf <dbl>,
## #   RT_detectability <dbl>

final_sf <- as_tibble(merged_sf_data)
show(final_sf)

## # A tibble: 180 x 9
##    fileID submission_id   age snellen_result timeSpent liking_sf RT_liking
##     <dbl> <fct>         <dbl>          <dbl>     <dbl>     <dbl>     <dbl>
##  1      1 616              33              5     12.5          2      3477
##  2      1 582              21              6      5.98         4      1848
##  3      1 479              26              4      7.92         4      3064
##  4      2 616              33              5     12.5          2      5169
##  5      2 582              21              6      5.98         1      1981
##  6      2 479              26              4      7.92         5      2624
##  7      3 616              33              5     12.5          2      2087
##  8      3 582              21              6      5.98         3      2183
##  9      3 479              26              4      7.92         2      2312
## 10      4 616              33              5     12.5          2       976
## # ... with 170 more rows, and 2 more variables: detectability_sf <dbl>,
## #   RT_detectability <dbl>
…
