Final analysis only Expert.rmd
…
Step 2. Select only the columns of interest and filter trials that are not interesting for the calculations. Change data type of the responses to double and submission_id to factor. Detect outliers. 

data_selection <- select(data_raw, submission_id, snellen_result, is_expert, age, gender, trial_name, trial_number, fileID, response, RT, timeSpent, comments)
data_filtered <- filter(data_selection, trial_name != "test_snellen", trial_name != "b0_expert")
data_mut <- mutate(data_filtered, response = as.double(response), submission_id = factor(submission_id))
show(data_selection)

## # A tibble: 12,078 x 12
##    submission_id snellen_result is_expert   age gender trial_name
##            <dbl>          <dbl> <chr>     <dbl> <chr>  <chr>     
##  1           566              9 No           20 female test_snel~
##  2           566              9 No           20 female b0_expert 
##  3           566              9 No           20 female b1_exp    
##  4           566              9 No           20 female b1_exp    
##  5           566              9 No           20 female b1_exp    
##  6           566              9 No           20 female b1_exp    
##  7           566              9 No           20 female b1_exp    
##  8           566              9 No           20 female b1_exp    
##  9           566              9 No           20 female b1_exp    
## 10           566              9 No           20 female b1_exp    
## # ... with 12,068 more rows, and 6 more variables: trial_number <dbl>,
## #   fileID <dbl>, response <chr>, RT <dbl>, timeSpent <dbl>,
## #   comments <chr>

show(data_filtered)

## # A tibble: 11,880 x 12
##    submission_id snellen_result is_expert   age gender trial_name
##            <dbl>          <dbl> <chr>     <dbl> <chr>  <chr>     
##  1           566              9 No           20 female b1_exp    
##  2           566              9 No           20 female b1_exp    
##  3           566              9 No           20 female b1_exp    
##  4           566              9 No           20 female b1_exp    
##  5           566              9 No           20 female b1_exp    
##  6           566              9 No           20 female b1_exp    
##  7           566              9 No           20 female b1_exp    
##  8           566              9 No           20 female b1_exp    
##  9           566              9 No           20 female b1_exp    
## 10           566              9 No           20 female b1_exp    
## # ... with 11,870 more rows, and 6 more variables: trial_number <dbl>,
## #   fileID <dbl>, response <chr>, RT <dbl>, timeSpent <dbl>,
## #   comments <chr>

show(data_mut)

## # A tibble: 11,880 x 12
##    submission_id snellen_result is_expert   age gender trial_name
##    <fct>                  <dbl> <chr>     <dbl> <chr>  <chr>     
##  1 566                        9 No           20 female b1_exp    
##  2 566                        9 No           20 female b1_exp    
##  3 566                        9 No           20 female b1_exp    
##  4 566                        9 No           20 female b1_exp    
##  5 566                        9 No           20 female b1_exp    
##  6 566                        9 No           20 female b1_exp    
##  7 566                        9 No           20 female b1_exp    
##  8 566                        9 No           20 female b1_exp    
##  9 566                        9 No           20 female b1_exp    
## 10 566                        9 No           20 female b1_exp    
## # ... with 11,870 more rows, and 6 more variables: trial_number <dbl>,
## #   fileID <dbl>, response <dbl>, RT <dbl>, timeSpent <dbl>,
## #   comments <chr>

# 3 participants only rated "1" in both blocks, one participant only rated "7", one gave a invalid input for the Snellen test, we exclude them:
data_clean <- filter(data_mut, submission_id != 607, submission_id != 736, submission_id != 475, submission_id != 480, submission_id != 726)
show(data_clean)

## # A tibble: 11,280 x 12
##    submission_id snellen_result is_expert   age gender trial_name
##    <fct>                  <dbl> <chr>     <dbl> <chr>  <chr>     
##  1 566                        9 No           20 female b1_exp    
##  2 566                        9 No           20 female b1_exp    
##  3 566                        9 No           20 female b1_exp    
##  4 566                        9 No           20 female b1_exp    
##  5 566                        9 No           20 female b1_exp    
##  6 566                        9 No           20 female b1_exp    
##  7 566                        9 No           20 female b1_exp    
##  8 566                        9 No           20 female b1_exp    
##  9 566                        9 No           20 female b1_exp    
## 10 566                        9 No           20 female b1_exp    
## # ... with 11,270 more rows, and 6 more variables: trial_number <dbl>,
## #   fileID <dbl>, response <dbl>, RT <dbl>, timeSpent <dbl>,
## #   comments <chr>

Demografics

data_rawdemografics <- select(data_clean, submission_id, age, gender, is_expert, snellen_result, comments)
data_demografics <- dplyr::distinct(group_by(data_rawdemografics, submission_id))
show(data_demografics[order(data_demografics$submission_id),])

## # A tibble: 94 x 6
## # Groups:   submission_id [94]
##    submission_id   age gender is_expert snellen_result comments
##    <fct>         <dbl> <chr>  <chr>              <dbl> <chr>   
##  1 458              51 male   Yes                    9 <NA>    
##  2 459              20 female Yes                    9 <NA>    
##  3 460              18 female No                     9 <NA>    
##  4 461              63 male   No                    10 <NA>    
##  5 462              29 female No                     9 <NA>    
##  6 463              56 female No                     7 <NA>    
##  7 464              21 female No                    10 <NA>    
##  8 465              21 female No                     9 <NA>    
##  9 466              19 female No                     8 <NA>    
## 10 467              23 male   No                    10 <NA>    
## # ... with 84 more rows
…
sum(is.na(data_clean$age))/120

## [1] 1

From total participants there are total 14 participants, who are below age of 20, 69 are in range of 20 - 40 and 10 are in range of 41 to 63. 1 participants did not give data for age.

Step 3. Filter participants that are experts. explit data according to trial (b1: Liking, b2: Detactability).  This analysis tells us something about the correlation in experts.

# Data for experts
data_exp <- filter(data_clean, is_expert == "Yes")
b1_exp <- filter(data_exp, trial_name == "b1_exp")
b2_exp <- filter(data_exp, trial_name == "b2_exp")
show(b1_exp)

## # A tibble: 540 x 12
##    submission_id snellen_result is_expert   age gender trial_name
##    <fct>                  <dbl> <chr>     <dbl> <chr>  <chr>     
##  1 613                        8 Yes          42 male   b1_exp    
##  2 613                        8 Yes          42 male   b1_exp    
##  3 613                        8 Yes          42 male   b1_exp    
##  4 613                        8 Yes          42 male   b1_exp    
##  5 613                        8 Yes          42 male   b1_exp    
##  6 613                        8 Yes          42 male   b1_exp    
##  7 613                        8 Yes          42 male   b1_exp    
##  8 613                        8 Yes          42 male   b1_exp    
##  9 613                        8 Yes          42 male   b1_exp    
## 10 613                        8 Yes          42 male   b1_exp    
## # ... with 530 more rows, and 6 more variables: trial_number <dbl>,
## #   fileID <dbl>, response <dbl>, RT <dbl>, timeSpent <dbl>,
## #   comments <chr>

show(b2_exp)

## # A tibble: 540 x 12
##    submission_id snellen_result is_expert   age gender trial_name
##    <fct>                  <dbl> <chr>     <dbl> <chr>  <chr>     
##  1 613                        8 Yes          42 male   b2_exp    
##  2 613                        8 Yes          42 male   b2_exp    
##  3 613                        8 Yes          42 male   b2_exp    
##  4 613                        8 Yes          42 male   b2_exp    
##  5 613                        8 Yes          42 male   b2_exp    
##  6 613                        8 Yes          42 male   b2_exp    
##  7 613                        8 Yes          42 male   b2_exp    
##  8 613                        8 Yes          42 male   b2_exp    
##  9 613                        8 Yes          42 male   b2_exp    
## 10 613                        8 Yes          42 male   b2_exp    
## # ... with 530 more rows, and 6 more variables: trial_number <dbl>,
## #   fileID <dbl>, response <dbl>, RT <dbl>, timeSpent <dbl>,
## #   comments <chr>

Step 4. Average data. Generate table with needed non-aggregated data in useful format.

Data of participantsthat passed snellen test

# Averaged data:
b1_exp_mean <- group_by(b1_exp, fileID) %>% summarise(mean_Like_exp = mean(response))
b2_exp_mean <- group_by(b2_exp, fileID) %>% summarise(mean_Detect_exp = mean(response))
show(b1_exp_mean)

## # A tibble: 60 x 2
##    fileID mean_Like_exp
##     <dbl>         <dbl>
##  1      1          4   
##  2      2          4.56
##  3      3          3.78
##  4      4          2.89
##  5      5          3.33
##  6      6          4.33
##  7      7          3.78
##  8      8          3.22
##  9      9          3.44
## 10     10          4.56
## # ... with 50 more rows

show(b2_exp_mean)

## # A tibble: 60 x 2
##    fileID mean_Detect_exp
##     <dbl>           <dbl>
##  1      1            4.33
##  2      2            4.33
##  3      3            3.11
##  4      4            2.56
##  5      5            3.33
##  6      6            4.33
##  7      7            4.11
##  8      8            3.56
##  9      9            3   
## 10     10            3.89
## # ... with 50 more rows
…
# Non-average data:
b1_exp_mutated <- mutate(b1_exp, liking_exp = response, RT_liking = RT)
b2_exp_mutated <- mutate(b2_exp, detectability_exp = response, RT_detectability = RT)
b1_exp_selected <- select(b1_exp_mutated, fileID, submission_id, age, snellen_result, timeSpent, liking_exp, RT_liking)
b2_exp_selected <- select(b2_exp_mutated, fileID, submission_id, age, snellen_result, timeSpent, detectability_exp, RT_detectability)
b1_exp_orderd <- b1_exp_selected[order(b1_exp_selected$fileID),]
b2_exp_orderd <- b2_exp_selected[order(b2_exp_selected$fileID),]
merged_exp_data <- b1_exp_orderd
merged_exp_data$detectability_exp <- b2_exp_orderd$detectability_exp
merged_exp_data$RT_detectability <- b2_exp_orderd$RT_detectability
show(b1_exp_selected)

## # A tibble: 540 x 7
##    fileID submission_id   age snellen_result timeSpent liking_exp RT_liking
##     <dbl> <fct>         <dbl>          <dbl>     <dbl>      <dbl>     <dbl>
##  1     14 613              42              8      9.23          7     16310
##  2     13 613              42              8      9.23          7      3436
##  3     30 613              42              8      9.23          6      7470
##  4     39 613              42              8      9.23          5      3522
##  5      1 613              42              8      9.23          7      5105
##  6     37 613              42              8      9.23          7      2984
##  7     56 613              42              8      9.23          5      3498
##  8      9 613              42              8      9.23          4      5635
##  9      2 613              42              8      9.23          2      4060
## 10     36 613              42              8      9.23          4      4330
## # ... with 530 more rows

show(b2_exp_selected)

## # A tibble: 540 x 7
##    fileID submission_id   age snellen_result timeSpent detectability_e~
##     <dbl> <fct>         <dbl>          <dbl>     <dbl>            <dbl>
##  1     48 613              42              8      9.23                3
##  2     16 613              42              8      9.23                3
##  3     11 613              42              8      9.23                4
##  4     51 613              42              8      9.23                6
##  5     33 613              42              8      9.23                6
##  6     52 613              42              8      9.23                4
##  7     42 613              42              8      9.23                4
##  8     50 613              42              8      9.23                2
##  9     46 613              42              8      9.23                3
## 10      6 613              42              8      9.23                7
## # ... with 530 more rows, and 1 more variable: RT_detectability <dbl>

show(b1_exp_orderd)

## # A tibble: 540 x 7
##    fileID submission_id   age snellen_result timeSpent liking_exp RT_liking
##     <dbl> <fct>         <dbl>          <dbl>     <dbl>      <dbl>     <dbl>
##  1      1 613              42              8      9.23          7      5105
##  2      1 547              20             10     39.7           1      6883
##  3      1 620              21              8     10.5           3      4024
##  4      1 742              28             10      9.33          4      4084
##  5      1 753              27              7     12.9           3     14442
##  6      1 755              13             10     11.6           6      3319
##  7      1 458              51              9      8.50          4      2465
##  8      1 459              20              9      4.71          4       836
##  9      1 479              26              4      7.92          4      3064
## 10      2 613              42              8      9.23          2      4060
## # ... with 530 more rows

show(b2_exp_orderd)

## # A tibble: 540 x 7
##    fileID submission_id   age snellen_result timeSpent detectability_e~
##     <dbl> <fct>         <dbl>          <dbl>     <dbl>            <dbl>
##  1      1 613              42              8      9.23                7
##  2      1 547              20             10     39.7                 1
##  3      1 620              21              8     10.5                 3
##  4      1 742              28             10      9.33                6
##  5      1 753              27              7     12.9                 4
##  6      1 755              13             10     11.6                 5
##  7      1 458              51              9      8.50                5
##  8      1 459              20              9      4.71                5
##  9      1 479              26              4      7.92                3
## 10      2 613              42              8      9.23                5
## # ... with 530 more rows, and 1 more variable: RT_detectability <dbl>

show(merged_exp_data)

## # A tibble: 540 x 9
##    fileID submission_id   age snellen_result timeSpent liking_exp RT_liking
##     <dbl> <fct>         <dbl>          <dbl>     <dbl>      <dbl>     <dbl>
##  1      1 613              42              8      9.23          7      5105
##  2      1 547              20             10     39.7           1      6883
##  3      1 620              21              8     10.5           3      4024
##  4      1 742              28             10      9.33          4      4084
##  5      1 753              27              7     12.9           3     14442
##  6      1 755              13             10     11.6           6      3319
##  7      1 458              51              9      8.50          4      2465
##  8      1 459              20              9      4.71          4       836
##  9      1 479              26              4      7.92          4      3064
## 10      2 613              42              8      9.23          2      4060
## # ... with 530 more rows, and 2 more variables: detectability_exp <dbl>,
## #   RT_detectability <dbl>

final_exp <- as_tibble(merged_exp_data)
show(final_exp)

## # A tibble: 540 x 9
##    fileID submission_id   age snellen_result timeSpent liking_exp RT_liking
##     <dbl> <fct>         <dbl>          <dbl>     <dbl>      <dbl>     <dbl>
##  1      1 613              42              8      9.23          7      5105
##  2      1 547              20             10     39.7           1      6883
##  3      1 620              21              8     10.5           3      4024
##  4      1 742              28             10      9.33          4      4084
##  5      1 753              27              7     12.9           3     14442
##  6      1 755              13             10     11.6           6      3319
##  7      1 458              51              9      8.50          4      2465
##  8      1 459              20              9      4.71          4       836
##  9      1 479              26              4      7.92          4      3064
## 10      2 613              42              8      9.23          2      4060
## # ... with 530 more rows, and 2 more variables: detectability_exp <dbl>,
## #   RT_detectability <dbl>
…
Result: Positive correlation.

Non-Averaged data: Cumulative family:

final_exp_mutated <- mutate(final_exp, liking_exp = as.integer(liking_exp), detectability_exp = as.integer(detectability_exp))
show(final_exp_mutated)

## # A tibble: 540 x 9
##    fileID submission_id   age snellen_result timeSpent liking_exp RT_liking
##     <dbl> <fct>         <dbl>          <dbl>     <dbl>      <int>     <dbl>
##  1      1 613              42              8      9.23          7      5105
##  2      1 547              20             10     39.7           1      6883
##  3      1 620              21              8     10.5           3      4024
##  4      1 742              28             10      9.33          4      4084
##  5      1 753              27              7     12.9           3     14442
##  6      1 755              13             10     11.6           6      3319
##  7      1 458              51              9      8.50          4      2465
##  8      1 459              20              9      4.71          4       836
##  9      1 479              26              4      7.92          4      3064
## 10      2 613              42              8      9.23          2      4060
## # ... with 530 more rows, and 2 more variables: detectability_exp <int>,
## #   RT_detectability <dbl>
…
